RStudio course: modelling
…
Exploring the Data

This is our data, called demoData:

print(demoData)

# A tibble: 100 x 8
      id dob        male  smoker intervention   day1  day2  day3
   <int> <date>     <lgl> <lgl>  <chr>         <dbl> <dbl> <dbl>
 1     1 2004-12-08 TRUE  FALSE  Drug 2         3.79 19.4  29.6 
 2     2 2007-06-14 FALSE TRUE   Drug 2         1.20 28.8  NA   
 3     3 2003-01-05 TRUE  FALSE  Drug 2         6.32 22.8  39.0 
 4     4 2002-09-14 FALSE FALSE  Placebo       -1.30  4.61  9.41
 5     5 2003-10-24 FALSE FALSE  Drug 1         7.79 19.9  14.7 
 6     6 2009-03-06 TRUE  FALSE  Drug 1        11.3  12.6  NA   
 7     7 2005-04-08 TRUE  FALSE  Drug 2         8.39 20.3  24.6 
 8     8 2008-12-28 FALSE FALSE  Placebo        9.05 11.4  NA   
 9     9 2003-12-31 FALSE FALSE  Placebo        6.43 13.7   9.47
10    10 2003-05-09 FALSE FALSE  Placebo        3.39  5.09  9.19
# … with 90 more rows
…
